{
  "Users": [
    {
      "name": "Khaled",
      "age": "20",
      "address": {
        "cityName": "Damascus",
        "cityNumber": "1",
        "street": {
          "streetNumber": "2",
          "streetName": "some_name"
        }
      }
    },
    {
      "name": "Ahmad",
      "age": "40",
      "address": {
        "cityName": "London",
        "cityNumber": "2",
        "street": {
          "streetNumber": "2",
          "streetName": "street_21_name"
        }
      }
    },
    {
      "name": "Ruba",
      "age": "50",
      "address": {
        "cityName": "Homs",
        "cityNumber": "12",
        "street": {
          "streetNumber": "2",
          "streetName": "Zahera"
        }
      }
    }
  ]
}